{
  "dashboard": {
    "annotations": {
      "list": [
        {
          "builtIn": 1,
          "datasource": "-- Grafana --",
          "enable": true,
          "hide": true,
          "iconColor": "rgba(0, 211, 255, 1)",
          "name": "Annotations & Alerts",
          "type": "dashboard"
        }
      ]
    },
    "editable": true,
    "gnetId": null,
    "graphTooltip": 0,
    "id": 1,
    "links": [],
    "panels": [
      {
        "circleMaxSize": "5",
        "circleMinSize": 2,
        "colors": [
          "#FADE2A",
          "rgba(237, 129, 40, 0.89)",
          "#C4162A"
        ],
        "datasource": null,
        "decimals": 0,
        "esGeoPoint": "location",
        "esLocationName": "",
        "esMetric": "Average",
        "fieldConfig": {
          "defaults": {
            "custom": {}
          },
          "overrides": []
        },
        "gridPos": {
          "h": 12,
          "w": 24,
          "x": 0,
          "y": 0
        },
        "hideEmpty": false,
        "hideZero": false,
        "id": 6,
        "initialZoom": "5",
        "locationData": "geohash",
        "mapCenter": "Europe",
        "mapCenterLatitude": 46,
        "mapCenterLongitude": 14,
        "maxDataPoints": 1,
        "mouseWheelZoom": false,
        "pluginVersion": "7.1.3",
        "repeat": null,
        "showLegend": true,
        "stickyLabels": false,
        "tableQueryOptions": {
          "geohashField": "geohash",
          "labelField": "area.keyword",
          "latitudeField": "latitude",
          "longitudeField": "longitude",
          "metricField": "temperature",
          "queryType": "coordinates"
        },
        "targets": [
          {
            "bucketAggs": [
              {
                "$$hashKey": "object:47",
                "fake": true,
                "field": "location",
                "id": "4",
                "settings": {
                  "precision": 7
                },
                "type": "geohash_grid"
              }
            ],
            "datasource": "Elasticsearch",
            "hide": false,
            "metrics": [
              {
                "$$hashKey": "object:45",
                "field": "temperature",
                "id": "1",
                "meta": {},
                "settings": {},
                "type": "avg"
              }
            ],
            "refId": "A",
            "timeField": "timestamp"
          }
        ],
        "thresholds": "0,30",
        "timeFrom": null,
        "timeShift": null,
        "title": "Map",
        "type": "grafana-worldmap-panel",
        "unitPlural": "",
        "unitSingle": "",
        "valueName": "avg"
      },
      {
        "datasource": null,
        "fieldConfig": {
          "defaults": {
            "custom": {
              "align": null,
              "displayMode": "auto"
            },
            "mappings": [],
            "thresholds": {
              "mode": "absolute",
              "steps": [
                {
                  "color": "green",
                  "value": null
                },
                {
                  "color": "red",
                  "value": 80
                }
              ]
            },
            "unit": "short"
          },
          "overrides": []
        },
        "gridPos": {
          "h": 8,
          "w": 24,
          "x": 0,
          "y": 12
        },
        "id": 4,
        "maxDataPoints": 1,
        "options": {
          "showHeader": true,
          "sortBy": [
            {
              "desc": false,
              "displayName": "Max select field"
            }
          ]
        },
        "pluginVersion": "7.1.3",
        "targets": [
          {
            "bucketAggs": [],
            "datasource": "Elasticsearch",
            "metrics": [
              {
                "field": "temperature",
                "id": "1",
                "meta": {},
                "settings": {
                  "size": 500
                },
                "type": "raw_data"
              }
            ],
            "refId": "A",
            "timeField": "timestamp"
          }
        ],
        "timeFrom": null,
        "timeShift": null,
        "title": "Entries",
        "type": "table"
      }
    ],
    "schemaVersion": 26,
    "style": "dark",
    "tags": [],
    "templating": {
      "list": []
    },
    "time": {
      "from": "now-30d",
      "to": "now"
    },
    "timepicker": {
      "refresh_intervals": [
        "5s",
        "10s",
        "30s",
        "1m",
        "5m",
        "15m",
        "30m",
        "1h",
        "2h",
        "1d"
      ]
    },
    "timezone": "",
    "title": "Weather metrics",
    "uid": "8ff-JcSGk",
    "version": 1
  }
}